<?xml version="1.0" encoding="UTF-8" standalone="no"?>
<!-- Created with Inkscape (http://www.inkscape.org/) -->

<svg
   xmlns:dc="http://purl.org/dc/elements/1.1/"
   xmlns:cc="http://creativecommons.org/ns#"
   xmlns:rdf="http://www.w3.org/1999/02/22-rdf-syntax-ns#"
   xmlns:svg="http://www.w3.org/2000/svg"
   xmlns="http://www.w3.org/2000/svg"
   xmlns:sodipodi="http://sodipodi.sourceforge.net/DTD/sodipodi-0.dtd"
   xmlns:inkscape="http://www.inkscape.org/namespaces/inkscape"
   width="150mm"
   height="150mm"
   viewBox="0 0 150 150"
   version="1.1"
   id="svg8"
   inkscape:version="0.92.4 (5da689c313, 2019-01-14)"
   sodipodi:docname="pointer.svg"
   inkscape:export-filename="E:\Users\Laura\Documents\lander.git\images\pointer.png"
   inkscape:export-xdpi="8.5586948"
   inkscape:export-ydpi="8.5586948">
  <defs
     id="defs2">
    <inkscape:path-effect
       effect="bspline"
       id="path-effect1059"
       is_visible="true"
       weight="33.333333"
       steps="2"
       helper_size="0"
       apply_no_weight="true"
       apply_with_weight="true"
       only_selected="false" />
    <inkscape:path-effect
       effect="bspline"
       id="path-effect1047"
       is_visible="true"
       weight="33.333333"
       steps="2"
       helper_size="0"
       apply_no_weight="true"
       apply_with_weight="true"
       only_selected="false" />
    <inkscape:path-effect
       effect="bspline"
       id="path-effect1025"
       is_visible="true"
       weight="33.333333"
       steps="2"
       helper_size="0"
       apply_no_weight="true"
       apply_with_weight="true"
       only_selected="false" />
    <inkscape:path-effect
       effect="bspline"
       id="path-effect945"
       is_visible="true"
       weight="33.333333"
       steps="2"
       helper_size="0"
       apply_no_weight="true"
       apply_with_weight="true"
       only_selected="false" />
    <inkscape:path-effect
       effect="bspline"
       id="path-effect941"
       is_visible="true"
       weight="33.333333"
       steps="2"
       helper_size="0"
       apply_no_weight="true"
       apply_with_weight="true"
       only_selected="false" />
    <inkscape:path-effect
       effect="bspline"
       id="path-effect871"
       is_visible="true"
       weight="33.333333"
       steps="2"
       helper_size="0"
       apply_no_weight="true"
       apply_with_weight="true"
       only_selected="false" />
    <inkscape:path-effect
       effect="bspline"
       id="path-effect856"
       is_visible="true"
       weight="33.333333"
       steps="2"
       helper_size="0"
       apply_no_weight="true"
       apply_with_weight="true"
       only_selected="false" />
    <inkscape:path-effect
       effect="bspline"
       id="path-effect849"
       is_visible="true"
       weight="33.333333"
       steps="2"
       helper_size="0"
       apply_no_weight="true"
       apply_with_weight="true"
       only_selected="false" />
    <inkscape:path-effect
       effect="bspline"
       id="path-effect817"
       is_visible="true"
       weight="33.333333"
       steps="2"
       helper_size="0"
       apply_no_weight="true"
       apply_with_weight="true"
       only_selected="false" />
    <inkscape:path-effect
       effect="bspline"
       id="path-effect817-6"
       is_visible="true"
       weight="33.333333"
       steps="2"
       helper_size="0"
       apply_no_weight="true"
       apply_with_weight="true"
       only_selected="false" />
    <inkscape:path-effect
       effect="bspline"
       id="path-effect817-0"
       is_visible="true"
       weight="33.333333"
       steps="2"
       helper_size="0"
       apply_no_weight="true"
       apply_with_weight="true"
       only_selected="false" />
    <inkscape:path-effect
       effect="bspline"
       id="path-effect817-0-4"
       is_visible="true"
       weight="33.333333"
       steps="2"
       helper_size="0"
       apply_no_weight="true"
       apply_with_weight="true"
       only_selected="false" />
    <inkscape:path-effect
       effect="bspline"
       id="path-effect817-2"
       is_visible="true"
       weight="33.333333"
       steps="2"
       helper_size="0"
       apply_no_weight="true"
       apply_with_weight="true"
       only_selected="false" />
    <inkscape:path-effect
       effect="bspline"
       id="path-effect945-2"
       is_visible="true"
       weight="33.333333"
       steps="2"
       helper_size="0"
       apply_no_weight="true"
       apply_with_weight="true"
       only_selected="false" />
    <inkscape:path-effect
       effect="bspline"
       id="path-effect941-4"
       is_visible="true"
       weight="33.333333"
       steps="2"
       helper_size="0"
       apply_no_weight="true"
       apply_with_weight="true"
       only_selected="false" />
    <inkscape:path-effect
       effect="bspline"
       id="path-effect817-2-9"
       is_visible="true"
       weight="33.333333"
       steps="2"
       helper_size="0"
       apply_no_weight="true"
       apply_with_weight="true"
       only_selected="false" />
    <inkscape:path-effect
       effect="bspline"
       id="path-effect1025-1"
       is_visible="true"
       weight="33.333333"
       steps="2"
       helper_size="0"
       apply_no_weight="true"
       apply_with_weight="true"
       only_selected="false" />
    <inkscape:path-effect
       effect="bspline"
       id="path-effect817-0-3"
       is_visible="true"
       weight="33.333333"
       steps="2"
       helper_size="0"
       apply_no_weight="true"
       apply_with_weight="true"
       only_selected="false" />
    <inkscape:path-effect
       effect="bspline"
       id="path-effect1025-9"
       is_visible="true"
       weight="33.333333"
       steps="2"
       helper_size="0"
       apply_no_weight="true"
       apply_with_weight="true"
       only_selected="false" />
    <inkscape:path-effect
       effect="bspline"
       id="path-effect1025-1-3"
       is_visible="true"
       weight="33.333333"
       steps="2"
       helper_size="0"
       apply_no_weight="true"
       apply_with_weight="true"
       only_selected="false" />
    <inkscape:path-effect
       effect="bspline"
       id="path-effect1047-4"
       is_visible="true"
       weight="33.333333"
       steps="2"
       helper_size="0"
       apply_no_weight="true"
       apply_with_weight="true"
       only_selected="false" />
    <inkscape:path-effect
       effect="bspline"
       id="path-effect1059-4"
       is_visible="true"
       weight="33.333333"
       steps="2"
       helper_size="0"
       apply_no_weight="true"
       apply_with_weight="true"
       only_selected="false" />
  </defs>
  <sodipodi:namedview
     id="base"
     pagecolor="#ffffff"
     bordercolor="#666666"
     borderopacity="1.0"
     inkscape:pageopacity="0.0"
     inkscape:pageshadow="2"
     inkscape:zoom="0.76729121"
     inkscape:cx="55.41225"
     inkscape:cy="269.31186"
     inkscape:document-units="mm"
     inkscape:current-layer="layer1"
     showgrid="false"
     inkscape:window-width="1680"
     inkscape:window-height="987"
     inkscape:window-x="1272"
     inkscape:window-y="-8"
     inkscape:window-maximized="1"
     inkscape:pagecheckerboard="true"
     fit-margin-top="0"
     fit-margin-left="0"
     fit-margin-right="0"
     fit-margin-bottom="0" />
  <metadata
     id="metadata5">
    <rdf:RDF>
      <cc:Work
         rdf:about="">
        <dc:format>image/svg+xml</dc:format>
        <dc:type
           rdf:resource="http://purl.org/dc/dcmitype/StillImage" />
        <dc:title></dc:title>
      </cc:Work>
    </rdf:RDF>
  </metadata>
  <g
     inkscape:label="Layer 1"
     inkscape:groupmode="layer"
     id="layer1"
     transform="translate(-41.200035,-145.95986)">
    <path
       style="opacity:1;fill:#30c030;fill-opacity:1;stroke:#9090ff;stroke-width:2;stroke-linecap:round;stroke-linejoin:miter;stroke-miterlimit:4;stroke-dasharray:none;stroke-dashoffset:0;stroke-opacity:1;paint-order:normal"
       d="m 161.20004,192.38852 c 0,24.85282 -45.00001,101.1738 -45.00001,101.1738 0,0 -44.999999,-76.32099 -44.999999,-101.1738 0,-24.85281 20.147186,-45 44.999999,-45 24.85282,0 45.00001,20.14718 45.00001,45 z"
       id="path879"
       inkscape:connector-curvature="0"
       sodipodi:nodetypes="scsss" />
    <g
       transform="translate(28.836455,-1.3175505)"
       id="g2621">
      <path
         transform="translate(19.262569,83.49818)"
         style="fill:#ffffff;fill-opacity:1;stroke:none;stroke-width:0.26458332px;stroke-linecap:butt;stroke-linejoin:miter;stroke-opacity:1"
         d="m 64.032,134.68383 c 0,0 8.125,0 8.125,0 1.748425,-11.75731 3.496892,-23.5149 2.819744,-32.87712 -0.677148,-9.362219 -3.779715,-16.329386 -6.882337,-23.296679 -3.102469,6.967293 -6.204654,13.933949 -6.88184,23.296729 -0.677186,9.36277 1.0711,21.11976 2.819433,32.87707 z"
         id="path815-1"
         inkscape:connector-curvature="0"
         inkscape:path-effect="#path-effect817-0-3"
         inkscape:original-d="m 64.032,134.68383 h 8.125 c 0,0 3.497113,-23.51487 5.245274,-35.27192 -3.102359,-6.967561 -9.307867,-20.901879 -9.307867,-20.901879 0,0 -6.204532,13.934003 -9.307407,20.901879 1.748678,11.75758 5.245,35.27192 5.245,35.27192 z"
         sodipodi:nodetypes="cccccc"
         inkscape:export-filename="E:\Users\Laura\Documents\Landergame\images\rocket.png"
         inkscape:export-xdpi="19.828178"
         inkscape:export-ydpi="19.828178" />
      <path
         style="fill:#ffffff;fill-opacity:1;stroke:none;stroke-width:0.99999994px;stroke-linecap:butt;stroke-linejoin:miter;stroke-opacity:1"
         d="m 329.78711,612.77148 c -11.58922,26.03011 -23.07558,52.15851 -25.60547,87.13672 -0.40206,5.55891 -0.55586,11.36355 -0.54102,17.33399 h 26.14649 z m 0.81055,105.28321 v 106.11328 h 14.94922 c 5.52295,-37.13928 11.0243,-74.25849 11.19531,-106.11328 z"
         transform="scale(0.26458333)"
         id="path815-7"
         inkscape:export-filename="E:\Users\Laura\Documents\Landergame\images\rocket.png"
         inkscape:export-xdpi="19.828178"
         inkscape:export-ydpi="19.828178"
         inkscape:connector-curvature="0" />
      <path
         style="fill:#ff8080;fill-opacity:1;stroke:none;stroke-width:0.26458332px;stroke-linecap:butt;stroke-linejoin:miter;stroke-opacity:1"
         d="m 87.470814,162.12963 v 27.64018 h 6.91741 c 0.004,-1.57974 -0.0362,-3.11549 -0.14263,-4.58628 -0.66929,-9.25363 -3.70846,-16.1671 -6.77478,-23.0539 z m -7.13186,27.85464 c 0.0451,8.42862 1.50083,18.24955 2.96209,28.07632 h 4.06229 v -28.07632 z"
         id="path815-7-5"
         inkscape:connector-curvature="0"
         inkscape:export-filename="E:\Users\Laura\Documents\Landergame\images\rocket.png"
         inkscape:export-xdpi="19.828178"
         inkscape:export-ydpi="19.828178" />
      <circle
         style="opacity:1;fill:#9090ff;fill-opacity:1;stroke:none;stroke-width:0.05;stroke-linecap:round;stroke-linejoin:miter;stroke-miterlimit:4;stroke-dasharray:none;stroke-dashoffset:0;stroke-opacity:1;paint-order:normal"
         id="path1021"
         cx="87.363724"
         cy="190.09511"
         r="4"
         inkscape:export-filename="E:\Users\Laura\Documents\Landergame\images\rocket.png"
         inkscape:export-xdpi="19.828178"
         inkscape:export-ydpi="19.828178" />
      <path
         style="fill:#c0c0c0;fill-opacity:1;stroke:none;stroke-width:0.26458332px;stroke-linecap:butt;stroke-linejoin:miter;stroke-opacity:1"
         d="m 91.426079,218.27846 c 0,0 1.265589,-8.60089 1.265589,-8.60089 0,0 6.841459,24.16161 6.841459,24.16161 0,0 -8.107048,-15.56072 -8.107048,-15.56072 z"
         id="path1023"
         inkscape:connector-curvature="0"
         inkscape:path-effect="#path-effect1025-9"
         inkscape:original-d="m 91.426079,218.27846 1.265589,-8.60089 6.841459,24.16161 z"
         sodipodi:nodetypes="cccc"
         inkscape:export-filename="E:\Users\Laura\Documents\Landergame\images\rocket.png"
         inkscape:export-xdpi="19.828178"
         inkscape:export-ydpi="19.828178" />
      <path
         transform="matrix(-1,0,0,1,174.72716,7e-6)"
         style="fill:#c0c0c0;fill-opacity:1;stroke:none;stroke-width:0.26458332px;stroke-linecap:butt;stroke-linejoin:miter;stroke-opacity:1"
         d="m 91.426079,218.27846 c 0,0 1.265589,-8.60089 1.265589,-8.60089 0,0 6.841459,24.16161 6.841459,24.16161 0,0 -8.107048,-15.56072 -8.107048,-15.56072 z"
         id="path1023-4"
         inkscape:connector-curvature="0"
         inkscape:path-effect="#path-effect1025-1-3"
         inkscape:original-d="m 91.426079,218.27846 1.265589,-8.60089 6.841459,24.16161 z"
         sodipodi:nodetypes="cccc"
         inkscape:export-filename="E:\Users\Laura\Documents\Landergame\images\rocket.png"
         inkscape:export-xdpi="19.828178"
         inkscape:export-ydpi="19.828178" />
      <path
         style="fill:none;stroke:#c0c0c0;stroke-width:0.30000001;stroke-linecap:butt;stroke-linejoin:miter;stroke-miterlimit:4;stroke-dasharray:none;stroke-opacity:1"
         d="m 87.470812,162.12963 c 0,-2.7705 0,-5.54071 0,-8.31067"
         id="path1045"
         inkscape:connector-curvature="0"
         inkscape:path-effect="#path-effect1047-4"
         inkscape:original-d="m 87.470812,162.12963 c 2.65e-4,-2.7705 2.65e-4,-5.54071 0,-8.31067"
         transform="translate(-0.10708869)"
         sodipodi:nodetypes="cc"
         inkscape:export-filename="E:\Users\Laura\Documents\Landergame\images\rocket.png"
         inkscape:export-xdpi="19.828178"
         inkscape:export-ydpi="19.828178" />
      <ellipse
         style="opacity:1;fill:#9090ff;fill-opacity:1;stroke:none;stroke-width:0.30000001;stroke-linecap:round;stroke-linejoin:miter;stroke-miterlimit:4;stroke-dasharray:none;stroke-dashoffset:0;stroke-opacity:1;paint-order:normal"
         id="path1049"
         cx="87.363724"
         cy="155.27951"
         rx="0.70421374"
         ry="0.42865184"
         inkscape:export-filename="E:\Users\Laura\Documents\Landergame\images\rocket.png"
         inkscape:export-xdpi="19.828178"
         inkscape:export-ydpi="19.828178" />
      <path
         style="fill:#808080;fill-opacity:1;stroke:none;stroke-width:0.26458332px;stroke-linecap:butt;stroke-linejoin:miter;stroke-opacity:1"
         d="m 84.839867,218.25105 c 0,0 -2.245984,3.89016 -2.245984,3.89016 0,0 8.394636,0 8.394636,0 0,0 -2.220457,-3.89015 -2.220457,-3.89015 0,0 -3.928195,0 -3.928195,0 0,0 0,-1e-5 0,-1e-5 z"
         id="path1057"
         inkscape:connector-curvature="0"
         inkscape:path-effect="#path-effect1059-4"
         inkscape:original-d="m 84.839867,218.25105 -2.245984,3.89016 h 8.394636 l -2.220457,-3.89015 h -3.928195 z"
         sodipodi:nodetypes="cccccc"
         transform="translate(0.57252274,-0.2653559)"
         inkscape:export-filename="E:\Users\Laura\Documents\Landergame\images\rocket.png"
         inkscape:export-xdpi="19.828178"
         inkscape:export-ydpi="19.828178" />
    </g>
  </g>
</svg>
